{
  "process_name": "Test Process Service Random",
  "step1": {"active": true,
    "name": "clear_live_controller",
    "max": 1,
    "min": 1
  },
   "step2": {"active": true,
    "name": "clear_preview_controller",
    "delay": 1
  },
   "step3": {"active": true,
    "name": "new_service",
    "max": 1,
    "min": 1
  },
   "step4": {"active": true,
    "name": "search_and_add",
    "delay": 1,
    "payload": {
      "plugin": "songs"
    }
  },
   "step5": {"active": true,
    "name": "search_and_add",
    "delay": 1,
    "payload": {
      "plugin": "bibles"
    }
  },
   "step6": {"active": true,
    "name": "search_and_add",
    "delay": 1,
    "payload": {
      "plugin": "bibles"
    }
  },
   "step7": {"active": true,
    "name": "search_and_add",
    "delay": 1,
    "payload": {"active": true,
      "plugin": "custom"
    }
  },
   "step8": {"active": true,
    "name": "search_and_add",
    "delay": 1,
    "payload": {
      "plugin": "images"
    }
  },
   "step9": {"active": true,
    "name": "search_and_add",
    "delay": 1,
    "payload": {
      "plugin": "songs"
    }
  },
   "step10": {"active": true,
    "name": "search_and_add",
    "delay": 1,
    "payload": {
      "plugin": "bibles"
    }
  },
   "step11": {"active": true,
    "name": "search_and_add",
    "delay": 1,
    "payload": {
      "plugin": "bibles"
    }
    },
     "step12": {"active": true,
    "name": "search_and_add",
    "delay": 1,
    "payload": {
      "plugin": "songs"
    }
  },
   "step13": {"active": true,
    "name": "search_and_add",
    "delay": 1,
    "payload": {
      "plugin": "custom"
    }
  },
   "step14": {"active": true,
    "name": "search_and_add",
    "delay": 1,
    "payload": {
      "plugin": "bibles"
    }
    },
     "step15": {"active": true,
    "name": "search_and_add",
    "delay": 1,
    "payload": {
      "plugin": "songs"
    }
  },
  "step16": {"active": true,
    "name": "load_service_random"
  }
}
